<?xml version="1.0" encoding="utf-8"?>
<!-- Generator: Adobe Illustrator 21.0.0, SVG Export Plug-In . SVG Version: 6.00 Build 0)  -->
<svg version="1.1" id="Layer_1" xmlns="http://www.w3.org/2000/svg" xmlns:xlink="http://www.w3.org/1999/xlink" x="0px" y="0px"
	 width="240px" height="270px" viewBox="0 0 240 270" style="enable-background:new 0 0 240 270;" xml:space="preserve">
<style type="text/css">
	.st0{fill:#EFF2F4;}
	.st1{opacity:0.52;fill:none;stroke:url(#SVGID_1_);stroke-width:6;stroke-linecap:round;stroke-miterlimit:10;}
	.st2{opacity:0.92;fill:url(#SVGID_2_);}
	.st3{fill:url(#SVGID_3_);}
	.st4{fill:url(#SVGID_4_);}
	.st5{fill:#353535;}
	.st6{fill:#CE5125;}
	.st7{fill:#D86132;}
	.st8{fill:url(#SVGID_5_);}
	.st9{opacity:0.3;}
	.st10{fill:#10663D;}
	.st11{fill:#727272;}
	.st12{fill:#B7B7B7;}
	.st13{fill:url(#SVGID_6_);}
	.st14{fill:none;stroke:#6E1584;stroke-width:8;stroke-linecap:round;stroke-miterlimit:10;}
	.st15{fill:#FFDCC5;}
	.st16{fill:#86219E;}
	.st17{fill:url(#SVGID_7_);}
	.st18{fill:url(#SVGID_8_);}
</style>
<g>
	<g>
		<circle class="st0" cx="120.5" cy="133.1" r="119.4"/>
		<linearGradient id="SVGID_1_" gradientUnits="userSpaceOnUse" x1="95.9424" y1="145.4225" x2="101.9424" y2="145.4225">
			<stop  offset="0" style="stop-color:#969696"/>
			<stop  offset="1" style="stop-color:#000000"/>
		</linearGradient>
		<line class="st1" x1="98.9" y1="88.1" x2="98.9" y2="202.7"/>
		<linearGradient id="SVGID_2_" gradientUnits="userSpaceOnUse" x1="44.9809" y1="35.0521" x2="152.9039" y2="142.9751">
			<stop  offset="0" style="stop-color:#00E9A7"/>
			<stop  offset="0.1163" style="stop-color:#00E49E"/>
			<stop  offset="0.3098" style="stop-color:#00D784"/>
			<stop  offset="0.5565" style="stop-color:#00C25B"/>
			<stop  offset="0.8438" style="stop-color:#00A522"/>
			<stop  offset="0.9944" style="stop-color:#009401"/>
		</linearGradient>
		<ellipse class="st2" cx="98.9" cy="89" rx="67" ry="84.6"/>
		<linearGradient id="SVGID_3_" gradientUnits="userSpaceOnUse" x1="166.1714" y1="189.4778" x2="206.4229" y2="229.7292">
			<stop  offset="0.1623" style="stop-color:#2AB4FF"/>
			<stop  offset="0.2973" style="stop-color:#2DABFA"/>
			<stop  offset="0.5151" style="stop-color:#3494EE"/>
			<stop  offset="0.7867" style="stop-color:#3F6DDA"/>
			<stop  offset="1" style="stop-color:#4A4AC7"/>
		</linearGradient>
		<path class="st3" d="M205.8,227.4h-37.6c-4.9,0-9-4.1-9-9v-18.3c0-4.9,4.1-9,9-9h35.6c4.9,0,9,4.1,9,9v20.3
			C212.8,224.3,209.7,227.4,205.8,227.4z"/>
		<linearGradient id="SVGID_4_" gradientUnits="userSpaceOnUse" x1="170.3431" y1="227.4471" x2="170.3431" y2="191.1665">
			<stop  offset="0.1623" style="stop-color:#2AB4FF"/>
			<stop  offset="1" style="stop-color:#4A73C7"/>
		</linearGradient>
		<path class="st4" d="M180.2,227.4h-17.7c-4.9,0-9-4.1-9-9v-18.3c0-4.9,4.1-9,9-9h15.7c4.9,0,9,4.1,9,9v20.3
			C187.2,224.3,184,227.4,180.2,227.4z"/>
		<path class="st5" d="M174.6,223.6h-7.8c-4.9,0-9-4-9-9v-11.9c0-3.9,3.1-7,7-7h9.8c3.9,0,7,3.1,7,7v13.9
			C181.6,220.4,178.5,223.6,174.6,223.6z"/>
		<path class="st6" d="M175.8,223.2h-5.4c-4.9,0-9-4.1-9-9v-2.4c0-4.9,4.1-9,9-9h2.4c4.9,0,9,4.1,9,9v5.4
			C181.8,220.6,179.1,223.2,175.8,223.2z"/>
		<path class="st7" d="M136.7,227.4H128c-2.5,0-4.5-2-4.5-4.5v-8.7c0-2.5,2-4.5,4.5-4.5h8.7c2.5,0,4.5,2,4.5,4.5v8.7
			C141.1,225.4,139.1,227.4,136.7,227.4z"/>
		<path class="st7" d="M115.4,227.4h-2.7c-1.1,0-2-0.9-2-2v-2.7c0-1.1,0.9-2,2-2h2.7c1.1,0,2,0.9,2,2v2.7
			C117.4,226.6,116.5,227.4,115.4,227.4z"/>
		<linearGradient id="SVGID_5_" gradientUnits="userSpaceOnUse" x1="146.4671" y1="220.2128" x2="176.0357" y2="220.2128">
			<stop  offset="0.1534" style="stop-color:#CF4A4A"/>
			<stop  offset="0.6429" style="stop-color:#EBA900"/>
		</linearGradient>
		<path class="st8" d="M171.6,227.4h-20.7c-2.5,0-4.5-2-4.5-4.5v-5.6c0-2.5,2-4.5,4.5-4.5h20.7c2.5,0,4.5,2,4.5,4.5v5.6
			C176,225.4,174,227.4,171.6,227.4z"/>
		<g class="st9">
			<path class="st10" d="M98.8,161c-0.4-11.9-0.6-23.8-0.8-35.7c-0.2-11.9-0.2-23.8-0.2-35.7c0-11.9,0.1-23.8,0.2-35.7
				c0.1-11.9,0.4-23.8,0.8-35.7c0.4,11.9,0.6,23.8,0.8,35.7c0.2,11.9,0.2,23.8,0.2,35.7c0,11.9-0.1,23.8-0.2,35.7
				C99.5,137.2,99.2,149.1,98.8,161z"/>
		</g>
		<g class="st9">
			<path class="st10" d="M110.2,111.9c4-1.1,8-2.6,11.7-4.5c1.8-1,3.6-2.1,5.3-3.2c1.8-1.1,3.4-2.4,5.1-3.6c0,0,0.1,0,0.1,0
				c0,0,0,0,0,0.1c-1.3,1.7-2.9,3.1-4.6,4.4c-1.7,1.3-3.6,2.2-5.5,3.1C118.4,109.9,114.4,111.1,110.2,111.9
				C110.2,112,110.2,111.9,110.2,111.9C110.2,111.9,110.2,111.9,110.2,111.9z"/>
		</g>
		<g class="st9">
			<path class="st10" d="M98.1,45.5c1.5-0.3,2.9-0.6,4.4-1c1.4-0.4,2.9-0.9,4.3-1.4c1.4-0.5,2.7-1.2,4.1-1.8
				c1.4-0.6,2.7-1.2,4.1-1.8c0,0,0.1,0,0.1,0c0,0,0,0,0,0.1c-1.1,1-2.4,1.9-3.8,2.6c-1.4,0.7-2.8,1.2-4.3,1.6
				C104.1,44.7,101.1,45.3,98.1,45.5C98.1,45.6,98,45.6,98.1,45.5C98,45.5,98.1,45.5,98.1,45.5z"/>
		</g>
		<g class="st9">
			<path class="st10" d="M97.9,96.8c-3.9,0-7.7-0.6-11.4-1.6c-3.7-1-7.4-2.5-10.7-4.4c-0.9-0.5-1.7-0.9-2.5-1.5
				c-0.8-0.5-1.6-1.1-2.4-1.6c-1.5-1.2-3.1-2.4-4.4-3.9c-2.8-2.8-4.9-6-6.7-9.4c0,0,0-0.1,0-0.1c0,0,0.1,0,0.1,0
				c2.3,3.1,4.5,6.2,7.3,8.8c1.3,1.4,2.8,2.5,4.3,3.8c0.8,0.6,1.5,1.1,2.3,1.7c0.8,0.6,1.6,1.1,2.4,1.5c3.3,1.9,6.8,3.5,10.5,4.6
				c3.7,1.1,7.5,1.8,11.3,2C97.9,96.7,97.9,96.8,97.9,96.8C97.9,96.8,97.9,96.8,97.9,96.8z"/>
		</g>
		<g class="st9">
			<path class="st10" d="M96.1,63.3c-2.3,0.1-4.6,0-6.8-0.4c-2.3-0.4-4.5-1-6.6-1.8c-2.1-0.8-4.2-1.9-6-3.4
				c-1.8-1.4-3.3-3.3-4.4-5.3c0,0,0-0.1,0-0.1c0,0,0,0,0.1,0l0,0c0.4,0.4,0.8,0.8,1.2,1.2l0.6,0.6c0.2,0.2,0.4,0.4,0.6,0.6
				c0.4,0.4,0.8,0.8,1.2,1.1l1.3,1c1.8,1.3,3.6,2.5,5.7,3.4c2,0.9,4.2,1.6,6.4,2.1C91.6,62.9,93.8,63.2,96.1,63.3
				C96.1,63.2,96.1,63.2,96.1,63.3C96.1,63.2,96.1,63.3,96.1,63.3z"/>
		</g>
		<g class="st9">
			<path class="st10" d="M99.8,146.5c2.2-0.4,4.3-1.1,6.4-1.9c2.1-0.8,4.1-1.7,6.1-2.7c2-1,3.8-2.2,5.7-3.4c1.9-1.1,3.7-2.4,5.6-3.6
				c0,0,0.1,0,0.1,0c0,0,0,0,0,0.1c-1.6,1.6-3.3,3-5.2,4.3c-1.8,1.3-3.9,2.3-5.9,3.2c-2,1-4.1,1.8-6.3,2.4
				C104.2,145.7,102,146.3,99.8,146.5C99.8,146.6,99.7,146.6,99.8,146.5C99.7,146.5,99.7,146.5,99.8,146.5z"/>
		</g>
		<g class="st9">
			<path class="st10" d="M99.8,82.9c2.2-0.1,4.3-0.7,6.3-1.4c1-0.3,2-0.8,3-1.1c1-0.4,2-0.9,2.9-1.4c3.9-1.9,7.5-4.4,10.8-7.1
				c3.4-2.7,6.4-5.8,9.5-8.8c1.5-1.6,2.9-3.2,4.4-4.7c1.4-1.6,2.8-3.3,4.3-4.9c0,0,0,0,0.1,0c0,0,0,0,0,0.1
				c-1.2,1.8-2.5,3.5-3.8,5.3c-1.4,1.7-2.8,3.3-4.2,5c-3,3.2-6.2,6.2-9.7,8.7c-3.5,2.6-7.1,5-11.1,6.9c-1,0.4-2,0.9-3,1.3
				c-1,0.4-2,0.8-3.1,1.1C104.1,82.4,102,82.9,99.8,82.9C99.8,83,99.7,83,99.8,82.9C99.7,82.9,99.7,82.9,99.8,82.9L99.8,82.9z"/>
		</g>
		<g>
			<path class="st11" d="M67.6,191.2v29.9h-3.8c0,0-4.2-7.9-4.1-15c0.1-7.1,1.4-10.9,1.4-10.9L67.6,191.2z"/>
			<path class="st12" d="M71.7,191.2v29.9H68c0,0-4.2-7.9-4.1-15c0.1-7.1,1.4-10.9,1.4-10.9L71.7,191.2z"/>
			<linearGradient id="SVGID_6_" gradientUnits="userSpaceOnUse" x1="65.0449" y1="200.0091" x2="65.0449" y2="135.1056">
				<stop  offset="0.1534" style="stop-color:#CF4ADD"/>
				<stop  offset="0.6429" style="stop-color:#AA00A1"/>
			</linearGradient>
			<path class="st13" d="M63.9,135.1h2.3c9.1,0,16.5,7.4,16.5,16.5v40.1c0,9.1-7.4,8.3-16.5,8.3h-2.3c-9.1,0-16.5,0.8-16.5-8.3
				v-40.1C47.4,142.5,54.8,135.1,63.9,135.1z"/>
			<line class="st14" x1="67.8" y1="185.9" x2="67.8" y2="154.5"/>
			<path class="st15" d="M75,107.1H59c-2.8,0-5,2.2-5,5v16.5c0,2.8,2.2,5,5,5H75c2.8,0,5-2.2,5-5v-16.5
				C80,109.3,77.7,107.1,75,107.1z"/>
			<path class="st16" d="M59.1,132.8h14.4c1.3,0,2.3,1,2.3,2.3v1.8c0,1.3-1,2.3-2.3,2.3H59.1c-1.3,0-2.3-1.1-2.3-2.3v-1.8
				C56.8,133.9,57.8,132.8,59.1,132.8z"/>
			<path d="M65,136h-10c-3.3,0-6-2.7-6-6v-13.7c0-3.3,22-9.6,22-6.3V130C71,133.3,68.3,136,65,136z"/>
			<path d="M65.8,103c-10.1,0-16.8,6.2-16.8,13.2h9.8h14.1l9.8,1C82.6,110.3,75.8,103,65.8,103z"/>
			<linearGradient id="SVGID_7_" gradientUnits="userSpaceOnUse" x1="61.209" y1="222.8299" x2="75.3577" y2="222.8299">
				<stop  offset="0.4978" style="stop-color:#AA00A1"/>
				<stop  offset="0.7813" style="stop-color:#CF4ADD"/>
			</linearGradient>
			<path class="st17" d="M73.7,226.4h-9.9c-2,0-2.6-1.6-2.6-3.6l0,0c0-2,1.6-3.6,3.6-3.6h6.9c2,0,3.6,1.6,3.6,3.6l0,0
				C75.3,224.8,75.7,226.4,73.7,226.4z"/>
			<linearGradient id="SVGID_8_" gradientUnits="userSpaceOnUse" x1="64.6579" y1="222.8299" x2="78.8066" y2="222.8299">
				<stop  offset="0.1534" style="stop-color:#CF4ADD"/>
				<stop  offset="0.6429" style="stop-color:#AA00A1"/>
			</linearGradient>
			<path class="st18" d="M77.2,226.4h-9.9c-2,0-2.6-1.6-2.6-3.6l0,0c0-2,1.6-3.6,3.6-3.6h6.9c2,0,3.6,1.6,3.6,3.6l0,0
				C78.8,224.8,79.2,226.4,77.2,226.4z"/>
		</g>
	</g>
</g>
</svg>
